{
    "bot": {
        "token": "",
        "username": "",
        "first_name": "",
        "valid_chat_ids": [
        ]
    },
    "quotes": {
        "enable": true,
        "file_path": ""
    }
}